🌊 Data Preparation 🪸 – {{< fa water >}} Covert Reef 🪸
…
exclude records with similar id values,

exclude thing_collected , time , date, friendship_type field, and

save the cleaned tibble dataframe into a new tibble datatable called mc3_nodes_cleaned.

Show the code

mc3_nodes_cleaned <- mc3_nodes_raw %>%
  mutate(id = as.character(id)) %>%
  filter(!is.na(id)) %>%
  distinct(id, .keep_all = TRUE) %>%
  select(-thing_collected, -time, -date, -friendship_type)

# A tibble: 27 × 2
   column            unique_count
   <chr>                    <int>
 1 id                        1159
 2 timestamp                  612
 3 content                    581
 4 label                       92
 5 name                        73
 6 findings                    70
 7 start_date                  69
 8 coordination_type           53
 9 operational_role            35
10 results                     33
# ℹ 17 more rows
…
